Ch2 - Time series graphics
…
z3
#> # A tsibble: 4 x 2 [1Q]
#>     Month Observation
#>     <qtr>       <dbl>
#> 1 2019 Q1          50
#> 2 2019 Q1          23
#> 3 2019 Q1          34
#> 4 2019 Q2          30

Working with tsibble objects

library(tsibbledata)
data(PBS)
PBS 
#> # A tsibble: 65,219 x 9 [1M]
#> # Key:       Concession, Type, ATC1, ATC2 [336]
#>         Month Concession  Type   ATC1  ATC1_desc  ATC2  ATC2_desc  Scripts  Cost
#>         <mth> <chr>       <chr>  <chr> <chr>      <chr> <chr>        <dbl> <dbl>
#>  1   1991 Jul Concession Co-pa A     Alimentar A01   STOMATOLO   18228 67877
#>  2   1991 Aug Concession Co-pa A     Alimentar A01   STOMATOLO   15327 57011
#>  3   1991 Sep Concession Co-pa A     Alimentar A01   STOMATOLO   14775 55020
#>  4   1991 Oct Concession Co-pa A     Alimentar A01   STOMATOLO   15380 57222
#>  5   1991 Nov Concession Co-pa A     Alimentar A01   STOMATOLO   14371 52120
#>  6   1991 Dec Concession Co-pa A     Alimentar A01   STOMATOLO   15028 54299
#>  7   1992 Jan Concession Co-pa A     Alimentar A01   STOMATOLO   11040 39753
#>  8   1992 Feb Concession Co-pa A     Alimentar A01   STOMATOLO   15165 54405
#>  9   1992 Mar Concession Co-pa A     Alimentar A01   STOMATOLO   16898 61108
#> 10   1992 Apr Concession Co-pa A     Alimentar A01   STOMATOLO   18141 65356
#> #  with 65,209 more rows

PBS %>% 
  filter(ATC2 == "A10") %>% 
  select(Month, Concession, Type, Cost)
#> # A tsibble: 816 x 4 [1M]
#> # Key:       Concession, Type [4]
#>       Month Concession   Type           Cost
#>       <mth> <chr>        <chr>         <dbl>
#>  1 1991 Jul Concessional Co-payments 2092878
#>  2 1991 Aug Concessional Co-payments 1795733
#>  3 1991 Sep Concessional Co-payments 1777231
#>  4 1991 Oct Concessional Co-payments 1848507
#>  5 1991 Nov Concessional Co-payments 1686458
#>  6 1991 Dec Concessional Co-payments 1843079
#>  7 1992 Jan Concessional Co-payments 1564702
#>  8 1992 Feb Concessional Co-payments 1732508
#>  9 1992 Mar Concessional Co-payments 2046102
#> 10 1992 Apr Concessional Co-payments 2225977
#> #  with 806 more rows

# PBS %>% 
#   filter(ATC2 == "A10") %>% 
#   select(Month, Cost)  # invalid as we get duplicate rows for each month (?)

PBS %>%
  filter(ATC2=="A10") %>%
  select(Month, Concession, Type, Cost) %>%
  summarise(TotalC = sum(Cost))
#> # A tsibble: 204 x 2 [1M]
#>       Month  TotalC
#>       <mth>   <dbl>
#>  1 1991 Jul 3526591
#>  2 1991 Aug 3180891
#>  3 1991 Sep 3252221
#>  4 1991 Oct 3611003
#>  5 1991 Nov 3565869
#>  6 1991 Dec 4306371
#>  7 1992 Jan 5088335
#>  8 1992 Feb 2814520
#>  9 1992 Mar 2985811
#> 10 1992 Apr 3204780
#> #  with 194 more rows

PBS %>%
  filter(ATC2=="A10") %>%
  select(Month, Concession, Type, Cost) %>%
  summarise(TotalC = sum(Cost)) %>%
  mutate(Cost = TotalC/1e6)
#> # A tsibble: 204 x 3 [1M]
#>       Month  TotalC  Cost
#>       <mth>   <dbl> <dbl>
#>  1 1991 Jul 3526591  3.53
#>  2 1991 Aug 3180891  3.18
#>  3 1991 Sep 3252221  3.25
#>  4 1991 Oct 3611003  3.61
#>  5 1991 Nov 3565869  3.57
#>  6 1991 Dec 4306371  4.31
#>  7 1992 Jan 5088335  5.09
#>  8 1992 Feb 2814520  2.81
#>  9 1992 Mar 2985811  2.99
#> 10 1992 Apr 3204780  3.20
#> #  with 194 more rows

PBS %>%
  filter(ATC2=="A10") %>%
  select(Month, Concession, Type, Cost) %>%
  summarise(TotalC = sum(Cost)) %>%
  mutate(Cost = TotalC/1e6) -> a10

a10
#> # A tsibble: 204 x 3 [1M]
#>       Month  TotalC  Cost
#>       <mth>   <dbl> <dbl>
#>  1 1991 Jul 3526591  3.53
#>  2 1991 Aug 3180891  3.18
#>  3 1991 Sep 3252221  3.25
#>  4 1991 Oct 3611003  3.61
#>  5 1991 Nov 3565869  3.57
#>  6 1991 Dec 4306371  4.31
#>  7 1992 Jan 5088335  5.09
#>  8 1992 Feb 2814520  2.81
#>  9 1992 Mar 2985811  2.99
#> 10 1992 Apr 3204780  3.20
#> #  with 194 more rows
…
prison <- prison %>%
  mutate(quarter = yearquarter(date)) %>%
  select(-date) %>%
  as_tsibble(key = c(state, gender, legal, indigenous), index = quarter)

prison
#> # A tsibble: 3,072 x 6 [1Q]
#> # Key:       state, gender, legal, indigenous [64]
#>    state gender legal    indigenous count quarter
#>    <chr> <chr>  <chr>    <chr>      <dbl>   <qtr>
#>  1 ACT   Female Remanded ATSI           0 2005 Q1
#>  2 ACT   Female Remanded ATSI           1 2005 Q2
#>  3 ACT   Female Remanded ATSI           0 2005 Q3
#>  4 ACT   Female Remanded ATSI           0 2005 Q4
#>  5 ACT   Female Remanded ATSI           1 2006 Q1
#>  6 ACT   Female Remanded ATSI           1 2006 Q2
#>  7 ACT   Female Remanded ATSI           1 2006 Q3
#>  8 ACT   Female Remanded ATSI           0 2006 Q4
#>  9 ACT   Female Remanded ATSI           0 2007 Q1
#> 10 ACT   Female Remanded ATSI           1 2007 Q2
#> #  with 3,062 more rows
…
